Place,Result
Tokyo-2020,10.89
rio-2016,10.9775
london-2012,10.87875
beijing-2008,11.04625
athens-2004,11.04
sydney-2000,11.20142857142857
atlanta-1996,11.033750000000001
barcelona-1992,10.958749999999998
seoul-1988,10.98875
los-angeles-1984,11.29375
moscow-1980,11.19125
montreal-1976,11.2275
munich-1972,11.4475
mexico-city-1968,11.2625
tokyo-1964,11.662500000000001
rome-1960,11.35
melbourne-1956,11.766666666666666
helsinki-1952,11.866666666666667
london-1948,12.266666666666666
berlin-1936,11.933333333333332
los-angeles-1932,12.1
amsterdam-1928,12.299999999999999
