Place,Result
Tokyo-2020,19.96875
rio-2016,20.127499999999998
london-2012,19.99375
beijing-2008,20.075000000000003
athens-2004,20.141428571428573
sydney-2000,20.247500000000002
atlanta-1996,20.00875
barcelona-1992,20.43625
seoul-1988,20.193749999999998
los-angeles-1984,20.347500000000004
moscow-1980,20.521250000000002
montreal-1976,20.63
munich-1972,20.458750000000002
mexico-city-1968,20.3
tokyo-1964,20.675
rome-1960,20.716666666666665
melbourne-1956,20.966666666666665
helsinki-1952,20.966666666666665
berlin-1936,21.366666666666664
los-angeles-1932,21.516666666666666
amsterdam-1928,21.966666666666665
paris-1924,21.916666666666668
